…
``` r
library(openair)
```

## Import data from the UK Automatic Urban and Rural Network

It is easy to import hourly data from 100s of sites and to import
several sites at one time and several years of data.

``` r
kc1 <- importAURN(site = "kc1", year = 2020)
kc1
#> # A tibble: 8,784 × 15
#>    source site     code  date                   co   nox   no2    no    o3   so2
#>    <chr>  <chr>    <chr> <dttm>              <dbl> <dbl> <dbl> <dbl> <dbl> <dbl>
#>  1 aurn   London … KC1   2020-01-01 00:00:00 0.214  64.8  46.2 12.1   1.13    NA
#>  2 aurn   London … KC1   2020-01-01 01:00:00 0.237  74.1  45.0 19.0   1.20    NA
#>  3 aurn   London … KC1   2020-01-01 02:00:00 0.204  60.5  41.4 12.4   1.50    NA
#>  4 aurn   London … KC1   2020-01-01 03:00:00 0.204  53.5  39.8  8.93  1.60    NA
#>  5 aurn   London … KC1   2020-01-01 04:00:00 0.169  37.7  33.6  2.63  5.79    NA
#>  6 aurn   London … KC1   2020-01-01 05:00:00 0.160  43.3  36.8  4.25  6.09    NA
#>  7 aurn   London … KC1   2020-01-01 06:00:00 0.157  48.2  39.4  5.76  2.74    NA
#>  8 aurn   London … KC1   2020-01-01 07:00:00 0.178  60.5  44.7 10.3   1.20    NA
#>  9 aurn   London … KC1   2020-01-01 08:00:00 0.233  71.8  47.9 15.6   2.25    NA
#> 10 aurn   London … KC1   2020-01-01 09:00:00 0.329 128.   46.9 53.2   2.25    NA
#> # ℹ 8,774 more rows
#> # ℹ 5 more variables: pm10 <dbl>, pm2.5 <dbl>, ws <dbl>, wd <dbl>,
#> #   air_temp <dbl>
```
…
``` r
sub <- selectByDate(
  kc1,
  day = "weekday",
  year = 2020,
  month = 6:9,
  hour = 7:19
)
sub
#> # A tibble: 1,144 × 15
#>    source site    code  date                    co   nox   no2    no    o3   so2
#>    <chr>  <chr>   <chr> <dttm>               <dbl> <dbl> <dbl> <dbl> <dbl> <dbl>
#>  1 aurn   London… KC1   2020-06-01 07:00:00 0.125   23.1 16.8  4.14   56.5  2.29
#>  2 aurn   London… KC1   2020-06-01 08:00:00 0.133   25.2 17.8  4.79   61.7  2.68
#>  3 aurn   London… KC1   2020-06-01 09:00:00 0.119   15.6 12.2  2.22   75.8  2.35
#>  4 aurn   London… KC1   2020-06-01 10:00:00 0.104   13.8 11.1  1.79   87.1  1.57
#>  5 aurn   London… KC1   2020-06-01 11:00:00 0.0956  14.0 11.8  1.46   96.7  1.44
#>  6 aurn   London… KC1   2020-06-01 12:00:00 0.0985  11.3  9.97 0.893 106.   1.44
#>  7 aurn   London… KC1   2020-06-01 13:00:00 0.0927  11.0  9.64 0.893 112.   2.03
#>  8 aurn   London… KC1   2020-06-01 14:00:00 0.0927  12.5 10.8  1.14  114.   2.81
#>  9 aurn   London… KC1   2020-06-01 15:00:00 0.0811  10.7  9.48 0.822 115.   2.88
#> 10 aurn   London… KC1   2020-06-01 16:00:00 0.0898  13.9 11.9  1.29  104.   2.22
#> # ℹ 1,134 more rows
#> # ℹ 5 more variables: pm10 <dbl>, pm2.5 <dbl>, ws <dbl>, wd <dbl>,
#> #   air_temp <dbl>
```

Similarly it is easy to time-average data in many flexible ways. For
example, 2-week means can be calculated as

``` r
sub2 <- timeAverage(kc1, avg.time = "2 week")
sub2
#> # A tibble: 27 × 12
#>    date                   co   nox   no2    no    o3   so2  pm10 pm2.5    ws
#>    <dttm>              <dbl> <dbl> <dbl> <dbl> <dbl> <dbl> <dbl> <dbl> <dbl>
#>  1 2019-12-26 00:00:00 0.142  29.6  25.2  2.86  33.0  1.71 14.5  10.2   3.42
#>  2 2020-01-09 00:00:00 0.192  67.7  32.8 22.7   37.6  2.75 15.0  10.2   3.91
#>  3 2020-01-23 00:00:00 0.143  35.0  27.1  5.19  43.6  2.23 14.2   9.03  3.75
#>  4 2020-02-06 00:00:00 0.135  31.6  21.7  6.45  55.4  3.08 12.1   7.26  5.75
#>  5 2020-02-20 00:00:00 0.124  24.6  20.9  2.44  57.6  2.90  9.30  4.89  5.09
#>  6 2020-03-05 00:00:00 0.133  25.1  19.7  3.51  58.6  2.40 10.1   6.03  4.59
#>  7 2020-03-19 00:00:00 0.125  23.3  19.5  2.48  66.4  1.82 19.3  12.4   4.04
#>  8 2020-04-02 00:00:00 0.122  25.9  23.2  1.78  71.8  2.07 22.4  15.7   2.81
#>  9 2020-04-16 00:00:00 0.102  19.1  16.9  1.42  77.4  2.14 21.8  13.1   3.38
#> 10 2020-04-30 00:00:00 0.112  16.2  14.4  1.17  76.5  1.93 13.2   8.13  3.60
#> # ℹ 17 more rows
#> # ℹ 2 more variables: wd <dbl>, air_temp <dbl>
```
…
